--------------------------------------------------------------------------
MPI_ABORT was invoked on rank 0 in communicator MPI_COMM_WORLD
with errorcode 16.

NOTE: invoking MPI_ABORT causes Open MPI to kill all MPI processes.
You may or may not see output from other processes, depending on
exactly when Open MPI kills them.
--------------------------------------------------------------------------
[instance-18:12214] PMIX ERROR: UNREACHABLE in file ../../../src/server/pmix_server.c at line 2079
[instance-18:12214] PMIX ERROR: UNREACHABLE in file ../../../src/server/pmix_server.c at line 2079
[instance-19][[14446,1],2][btl_tcp.c:559:mca_btl_tcp_recv_blocking] recv(17) failed: Connection reset by peer (104)
[instance-18:12214] 5 more processes have sent help message help-mpi-api.txt / mpi-abort
[instance-18:12214] Set MCA parameter "orte_base_help_aggregate" to 0 to see all help / error messages
